Signature Search Results
…
## # A tibble: 4 x 5
## # Groups:   coupling [1]
##   coupling sigprot `median(norm_score)` `sum(norm_score)` `n()`
##   <chr>    <chr>                  <dbl>             <dbl> <int>
## 1 Primary  G12/G13                1.82               52.5    28
## 2 Primary  Gi/Go                  0.406              57.2   138
## 3 Primary  Gq/G11                 0.583              56.4    96
## 4 Primary  Gs                     1.07               58.5    55

df_norm <- df %>% 
  group_by(coupling, sigprot) %>%
  mutate(norm_score=score/n())
df_norm

## # A tibble: 659 x 7
## # Groups:   coupling, sigprot [12]
##    name  score sigprot coupling    coupling_f  sigprot_f norm_score
##    <chr> <dbl> <chr>   <chr>       <fct>       <fct>          <dbl>
##  1 LT4R1    50 Gs      No Coupling No Coupling Gs             0.769
##  2 GPR17    66 Gs      No Coupling No Coupling Gs             1.02 
##  3 CNR2     70 Gs      Secondary   Secondary   Gs             1.84 
##  4 HRH2     70 Gs      Primary     Primary     Gs             1.27 
##  5 PE2R3    49 Gs      No Coupling No Coupling Gs             0.754
##  6 DRD2     70 Gs      No Coupling No Coupling Gs             1.08 
##  7 NPBW1    52 Gs      No Coupling No Coupling Gs             0.8  
##  8 RXFP1    47 Gs      Primary     Primary     Gs             0.855
##  9 SSR4     71 Gs      No Coupling No Coupling Gs             1.09 
## 10 MRGX2    50 Gs      Secondary   Secondary   Gs             1.32 
## #  with 649 more rows
…
